"Hamster,mammals,Explore the Mammals"
"Lion,mammals,Explore the Mammals"
"Cat,mammals,Explore the Mammals"
"Eagle,aves,World of Aves"
"Parrot,aves,World of Aves"
"Snake,reptiles,Reptillian Kingdom"
"Whale,mammals,Explore the Mammals"
